EESchema Schematic File Version 4
LIBS:e22_board-cache
EELAYER 29 0
EELAYER END
$Descr A4 11693 8268
encoding utf-8
Sheet 1 2
Title ""
Date ""
Rev ""
Comp ""
Comment1 ""
Comment2 ""
Comment3 ""
Comment4 ""
$EndDescr
$Comp
L Ebyte:E22-900T22S U1
U 1 1 5FE32BB9
P 7500 2800
F 0 "U1" H 8350 4315 50  0000 C CNN
F 1 "E22-900T22S" H 8350 4224 50  0000 C CNN
F 2 "Ebyte:E22-900T22S" H 8650 4200 50  0001 C CNN
F 3 "" H 8650 4200 50  0001 C CNN
	1    7500 2800
	1    0    0    -1  
$EndComp
$Comp
L Connector:Conn_Coaxial J1
U 1 1 5FE3D14A
P 6950 2650
F 0 "J1" V 7187 2579 50  0000 C CNN
F 1 "Conn_Coaxial" V 7096 2579 50  0000 C CNN
F 2 "Connector_Coaxial:SMA_Amphenol_132289_EdgeMount" H 6950 2650 50  0001 C CNN
F 3 " ~" H 6950 2650 50  0001 C CNN
	1    6950 2650
	-1   0    0    -1  
$EndComp
$Comp
L power:GND #PWR0101
U 1 1 5FE3DC02
P 6950 2950
F 0 "#PWR0101" H 6950 2700 50  0001 C CNN
F 1 "GND" H 6955 2777 50  0000 C CNN
F 2 "" H 6950 2950 50  0001 C CNN
F 3 "" H 6950 2950 50  0001 C CNN
	1    6950 2950
	1    0    0    -1  
$EndComp
$Comp
L power:GND #PWR0102
U 1 1 5FE3DD3C
P 7800 2950
F 0 "#PWR0102" H 7800 2700 50  0001 C CNN
F 1 "GND" H 7805 2777 50  0000 C CNN
F 2 "" H 7800 2950 50  0001 C CNN
F 3 "" H 7800 2950 50  0001 C CNN
	1    7800 2950
	1    0    0    -1  
$EndComp
$Comp
L power:GND #PWR0103
U 1 1 5FE3E00B
P 8950 2950
F 0 "#PWR0103" H 8950 2700 50  0001 C CNN
F 1 "GND" H 8955 2777 50  0000 C CNN
F 2 "" H 8950 2950 50  0001 C CNN
F 3 "" H 8950 2950 50  0001 C CNN
	1    8950 2950
	1    0    0    -1  
$EndComp
Wire Wire Line
	8800 2250 8950 2250
Wire Wire Line
	8950 2250 8950 2550
Wire Wire Line
	8950 2550 8800 2550
Wire Wire Line
	8950 2550 8950 2650
Wire Wire Line
	8950 2650 8800 2650
Connection ~ 8950 2550
Wire Wire Line
	8950 2650 8950 2750
Wire Wire Line
	8950 2750 8800 2750
Connection ~ 8950 2650
Wire Wire Line
	8950 2750 8950 2950
Connection ~ 8950 2750
Wire Wire Line
	7900 2750 7800 2750
Wire Wire Line
	7800 2750 7800 2950
$Comp
L power:GND #PWR0104
U 1 1 5FE3F1EF
P 7650 2350
F 0 "#PWR0104" H 7650 2100 50  0001 C CNN
F 1 "GND" H 7655 2177 50  0000 C CNN
F 2 "" H 7650 2350 50  0001 C CNN
F 3 "" H 7650 2350 50  0001 C CNN
	1    7650 2350
	1    0    0    -1  
$EndComp
Wire Wire Line
	7900 2550 7800 2550
Wire Wire Line
	7800 2550 7800 2250
Wire Wire Line
	7800 2250 7900 2250
Wire Wire Line
	7800 2250 7650 2250
Wire Wire Line
	7650 2250 7650 2350
Connection ~ 7800 2250
Wire Wire Line
	7800 2250 7800 1650
Wire Wire Line
	7800 1650 7900 1650
Wire Wire Line
	8800 1550 9000 1550
Wire Wire Line
	9000 1550 9000 1200
Wire Wire Line
	9000 1200 7800 1200
Wire Wire Line
	7800 1200 7800 1650
Connection ~ 7800 1650
NoConn ~ 7900 2150
NoConn ~ 7900 2050
NoConn ~ 7900 1950
NoConn ~ 7900 1850
NoConn ~ 7900 1750
NoConn ~ 7900 1550
Text Label 8950 1750 0    50   ~ 0
E22_AUX
Text Label 8950 1850 0    50   ~ 0
E22_TXD
Text Label 8950 1950 0    50   ~ 0
E22_RXD
Text Label 8950 2050 0    50   ~ 0
E22_M1
Text Label 8950 2150 0    50   ~ 0
E22_M0
Wire Wire Line
	8800 2150 8950 2150
Wire Wire Line
	8800 2050 8950 2050
Wire Wire Line
	8800 1950 8950 1950
Wire Wire Line
	8800 1850 8950 1850
Wire Wire Line
	8800 1750 8950 1750
$Comp
L Device:C C1
U 1 1 5FE44107
P 9200 1400
F 0 "C1" H 9315 1446 50  0000 L CNN
F 1 "47uF" H 9315 1355 50  0000 L CNN
F 2 "Capacitor_SMD:C_0805_2012Metric" H 9238 1250 50  0001 C CNN
F 3 "~" H 9200 1400 50  0001 C CNN
	1    9200 1400
	1    0    0    -1  
$EndComp
Wire Wire Line
	8800 1650 9200 1650
$Comp
L Device:C C2
U 1 1 5FE45F9C
P 9600 1400
F 0 "C2" H 9715 1446 50  0000 L CNN
F 1 "100nF" H 9715 1355 50  0000 L CNN
F 2 "Capacitor_SMD:C_0805_2012Metric" H 9638 1250 50  0001 C CNN
F 3 "~" H 9600 1400 50  0001 C CNN
	1    9600 1400
	1    0    0    -1  
$EndComp
Wire Wire Line
	9000 1200 9200 1200
Wire Wire Line
	9200 1200 9200 1250
Connection ~ 9000 1200
Wire Wire Line
	9200 1550 9200 1650
Connection ~ 9200 1650
Wire Wire Line
	9200 1650 9600 1650
Wire Wire Line
	9600 1250 9600 1200
Wire Wire Line
	9600 1200 9200 1200
Connection ~ 9200 1200
Wire Wire Line
	9600 1550 9600 1650
Connection ~ 9600 1650
Wire Wire Line
	9600 1650 9950 1650
Wire Wire Line
	6950 2950 6950 2850
Wire Wire Line
	7150 2650 7900 2650
$Comp
L Device:LED D?
U 1 1 5FE4BBBB
P 1350 2200
F 0 "D?" V 1389 2083 50  0000 R CNN
F 1 "LED" V 1298 2083 50  0000 R CNN
F 2 "LED_SMD:LED_0805_2012Metric" H 1350 2200 50  0001 C CNN
F 3 "~" H 1350 2200 50  0001 C CNN
	1    1350 2200
	0    -1   -1   0   
$EndComp
$Comp
L Device:LED D?
U 1 1 5FE4D0AE
P 1750 2200
F 0 "D?" V 1789 2083 50  0000 R CNN
F 1 "LED" V 1698 2083 50  0000 R CNN
F 2 "LED_SMD:LED_0805_2012Metric" H 1750 2200 50  0001 C CNN
F 3 "~" H 1750 2200 50  0001 C CNN
	1    1750 2200
	0    -1   -1   0   
$EndComp
$Comp
L Device:LED D?
U 1 1 5FE4D35B
P 2150 2200
F 0 "D?" V 2189 2083 50  0000 R CNN
F 1 "LED" V 2098 2083 50  0000 R CNN
F 2 "LED_SMD:LED_0805_2012Metric" H 2150 2200 50  0001 C CNN
F 3 "~" H 2150 2200 50  0001 C CNN
	1    2150 2200
	0    -1   -1   0   
$EndComp
$Comp
L Device:LED D?
U 1 1 5FE4D5F1
P 2550 2200
F 0 "D?" V 2589 2083 50  0000 R CNN
F 1 "LED" V 2498 2083 50  0000 R CNN
F 2 "LED_SMD:LED_0805_2012Metric" H 2550 2200 50  0001 C CNN
F 3 "~" H 2550 2200 50  0001 C CNN
	1    2550 2200
	0    -1   -1   0   
$EndComp
$Comp
L power:GND #PWR?
U 1 1 5FE4D9CD
P 1350 2900
F 0 "#PWR?" H 1350 2650 50  0001 C CNN
F 1 "GND" H 1355 2727 50  0000 C CNN
F 2 "" H 1350 2900 50  0001 C CNN
F 3 "" H 1350 2900 50  0001 C CNN
	1    1350 2900
	1    0    0    -1  
$EndComp
$Comp
L Device:R R?
U 1 1 5FE4DD01
P 1350 1750
F 0 "R?" H 1420 1796 50  0000 L CNN
F 1 "1k" H 1420 1705 50  0000 L CNN
F 2 "Resistor_SMD:R_0805_2012Metric" V 1280 1750 50  0001 C CNN
F 3 "~" H 1350 1750 50  0001 C CNN
	1    1350 1750
	1    0    0    -1  
$EndComp
$Comp
L Device:R R?
U 1 1 5FE4E2A7
P 1750 1750
F 0 "R?" H 1820 1796 50  0000 L CNN
F 1 "1k" H 1820 1705 50  0000 L CNN
F 2 "Resistor_SMD:R_0805_2012Metric" V 1680 1750 50  0001 C CNN
F 3 "~" H 1750 1750 50  0001 C CNN
	1    1750 1750
	1    0    0    -1  
$EndComp
$Comp
L Device:R R?
U 1 1 5FE4E46E
P 2150 1750
F 0 "R?" H 2220 1796 50  0000 L CNN
F 1 "1k" H 2220 1705 50  0000 L CNN
F 2 "Resistor_SMD:R_0805_2012Metric" V 2080 1750 50  0001 C CNN
F 3 "~" H 2150 1750 50  0001 C CNN
	1    2150 1750
	1    0    0    -1  
$EndComp
$Comp
L Device:R R?
U 1 1 5FE4E653
P 2550 1750
F 0 "R?" H 2620 1796 50  0000 L CNN
F 1 "1k" H 2620 1705 50  0000 L CNN
F 2 "Resistor_SMD:R_0805_2012Metric" V 2480 1750 50  0001 C CNN
F 3 "~" H 2550 1750 50  0001 C CNN
	1    2550 1750
	1    0    0    -1  
$EndComp
$Comp
L power:+3.3V #PWR?
U 1 1 5FE4E936
P 1350 1350
F 0 "#PWR?" H 1350 1200 50  0001 C CNN
F 1 "+3.3V" H 1365 1523 50  0000 C CNN
F 2 "" H 1350 1350 50  0001 C CNN
F 3 "" H 1350 1350 50  0001 C CNN
	1    1350 1350
	1    0    0    -1  
$EndComp
Wire Wire Line
	1350 1350 1350 1500
Wire Wire Line
	1350 1500 1750 1500
Wire Wire Line
	1750 1500 1750 1600
Connection ~ 1350 1500
Wire Wire Line
	1350 1500 1350 1600
Wire Wire Line
	1750 1500 2150 1500
Wire Wire Line
	2150 1500 2150 1600
Connection ~ 1750 1500
Wire Wire Line
	2150 1500 2550 1500
Wire Wire Line
	2550 1500 2550 1600
Connection ~ 2150 1500
Wire Wire Line
	2550 1900 2550 2050
Wire Wire Line
	1350 2050 1350 1900
Wire Wire Line
	1750 2050 1750 1900
Wire Wire Line
	2150 2050 2150 1900
$Comp
L Jumper:SolderJumper_2_Open JP?
U 1 1 5FE54E17
P 1350 2600
F 0 "JP?" V 1350 2668 50  0000 L CNN
F 1 "SolderJumper_2_Open" V 1395 2668 50  0001 L CNN
F 2 "Jumper:SolderJumper-2_P1.3mm_Open_RoundedPad1.0x1.5mm" H 1350 2600 50  0001 C CNN
F 3 "~" H 1350 2600 50  0001 C CNN
	1    1350 2600
	0    1    1    0   
$EndComp
$Comp
L Jumper:SolderJumper_2_Open JP?
U 1 1 5FE561E1
P 1750 2600
F 0 "JP?" V 1750 2668 50  0000 L CNN
F 1 "SolderJumper_2_Open" V 1795 2668 50  0001 L CNN
F 2 "Jumper:SolderJumper-2_P1.3mm_Open_RoundedPad1.0x1.5mm" H 1750 2600 50  0001 C CNN
F 3 "~" H 1750 2600 50  0001 C CNN
	1    1750 2600
	0    1    1    0   
$EndComp
$Comp
L Jumper:SolderJumper_2_Open JP?
U 1 1 5FE56404
P 2150 2600
F 0 "JP?" V 2150 2668 50  0000 L CNN
F 1 "SolderJumper_2_Open" V 2195 2668 50  0001 L CNN
F 2 "Jumper:SolderJumper-2_P1.3mm_Open_RoundedPad1.0x1.5mm" H 2150 2600 50  0001 C CNN
F 3 "~" H 2150 2600 50  0001 C CNN
	1    2150 2600
	0    1    1    0   
$EndComp
$Comp
L Jumper:SolderJumper_2_Open JP?
U 1 1 5FE56848
P 2550 2600
F 0 "JP?" V 2550 2668 50  0000 L CNN
F 1 "SolderJumper_2_Open" V 2595 2668 50  0001 L CNN
F 2 "Jumper:SolderJumper-2_P1.3mm_Open_RoundedPad1.0x1.5mm" H 2550 2600 50  0001 C CNN
F 3 "~" H 2550 2600 50  0001 C CNN
	1    2550 2600
	0    1    1    0   
$EndComp
Wire Wire Line
	1350 2900 1350 2750
Wire Wire Line
	1350 2450 1350 2350
Wire Wire Line
	1750 2450 1750 2350
Wire Wire Line
	2150 2450 2150 2350
Wire Wire Line
	2550 2450 2550 2350
Text Label 1750 2900 3    50   ~ 0
E22_TXD
Text Label 2150 2900 3    50   ~ 0
E22_RXD
Text Label 2550 2900 3    50   ~ 0
E22_AUX
Wire Wire Line
	1750 2900 1750 2750
Wire Wire Line
	2150 2900 2150 2750
Wire Wire Line
	2550 2900 2550 2750
Text Notes 1250 950  0    118  ~ 0
Indicator Lights
Text Notes 8200 950  0    118  ~ 0
LoRa Module
$Comp
L Connector_Generic:Conn_02x02_Odd_Even J?
U 1 1 5FE67A4B
P 4750 2200
F 0 "J?" H 4800 2325 50  0000 C CNN
F 1 "Conn_02x02_Odd_Even" H 4800 2326 50  0001 C CNN
F 2 "Connector_PinHeader_2.54mm:PinHeader_2x02_P2.54mm_Vertical" H 4750 2200 50  0001 C CNN
F 3 "~" H 4750 2200 50  0001 C CNN
	1    4750 2200
	1    0    0    -1  
$EndComp
$Comp
L power:GND #PWR?
U 1 1 5FE68854
P 4450 2600
F 0 "#PWR?" H 4450 2350 50  0001 C CNN
F 1 "GND" H 4455 2427 50  0000 C CNN
F 2 "" H 4450 2600 50  0001 C CNN
F 3 "" H 4450 2600 50  0001 C CNN
	1    4450 2600
	1    0    0    -1  
$EndComp
$Comp
L power:GND #PWR?
U 1 1 5FE68C03
P 5150 2600
F 0 "#PWR?" H 5150 2350 50  0001 C CNN
F 1 "GND" H 5155 2427 50  0000 C CNN
F 2 "" H 5150 2600 50  0001 C CNN
F 3 "" H 5150 2600 50  0001 C CNN
	1    5150 2600
	1    0    0    -1  
$EndComp
Wire Wire Line
	4450 2600 4450 2300
Wire Wire Line
	4450 2300 4550 2300
Wire Wire Line
	5050 2300 5150 2300
Wire Wire Line
	5150 2300 5150 2600
Text Label 5350 2200 0    50   ~ 0
E22_M1
Text Label 4150 2200 2    50   ~ 0
E22_M0
Wire Wire Line
	4550 2200 4350 2200
Wire Wire Line
	5050 2200 5100 2200
$Comp
L Device:R R?
U 1 1 5FE6E56D
P 4350 1900
F 0 "R?" H 4420 1946 50  0000 L CNN
F 1 "10k" H 4420 1855 50  0000 L CNN
F 2 "Resistor_SMD:R_0805_2012Metric" V 4280 1900 50  0001 C CNN
F 3 "~" H 4350 1900 50  0001 C CNN
	1    4350 1900
	1    0    0    -1  
$EndComp
$Comp
L Device:R R?
U 1 1 5FE6ECAA
P 5100 1900
F 0 "R?" H 5170 1946 50  0000 L CNN
F 1 "10k" H 5170 1855 50  0000 L CNN
F 2 "Resistor_SMD:R_0805_2012Metric" V 5030 1900 50  0001 C CNN
F 3 "~" H 5100 1900 50  0001 C CNN
	1    5100 1900
	1    0    0    -1  
$EndComp
$Comp
L power:+3.3V #PWR?
U 1 1 5FE6F09B
P 4350 1600
F 0 "#PWR?" H 4350 1450 50  0001 C CNN
F 1 "+3.3V" H 4365 1773 50  0000 C CNN
F 2 "" H 4350 1600 50  0001 C CNN
F 3 "" H 4350 1600 50  0001 C CNN
	1    4350 1600
	1    0    0    -1  
$EndComp
Wire Wire Line
	4350 1750 4350 1700
Wire Wire Line
	4350 2050 4350 2200
Connection ~ 4350 2200
Wire Wire Line
	4350 2200 4150 2200
Wire Wire Line
	5100 2050 5100 2200
Connection ~ 5100 2200
Wire Wire Line
	5100 2200 5350 2200
Wire Wire Line
	5100 1750 5100 1700
Wire Wire Line
	5100 1700 4350 1700
Connection ~ 4350 1700
Wire Wire Line
	4350 1700 4350 1600
Text Notes 4200 950  0    118  ~ 0
LoRa Mode Selection\n
Text Label 9950 1650 0    50   ~ 0
Vcc
$Sheet
S 2250 4450 2250 2350
U 5FE7A97C
F0 "IP5306" 50
F1 "IP5306.sch" 50
$EndSheet
$EndSCHEMATC
